%YAML 1.1
%TAG !u! tag:unity3d.com,2011:
--- !u!114 &11400000
MonoBehaviour:
  m_ObjectHideFlags: 0
  m_CorrespondingSourceObject: {fileID: 0}
  m_PrefabInstance: {fileID: 0}
  m_PrefabAsset: {fileID: 0}
  m_GameObject: {fileID: 0}
  m_Enabled: 1
  m_EditorHideFlags: 0
  m_Script: {fileID: 11500000, guid: a6b194f808b1af6499c93410e504af42, type: 3}
  m_Name: alien_Atlas
  m_EditorClassIdentifier: 
  atlasFile: {fileID: 4900000, guid: 82da8105978ab5a4a9f98eb0cf3042ce, type: 3}
  materials:
  - {fileID: 2100000, guid: 15115790553da614885e5a7e6fd21a3b, type: 2}
  - {fileID: 2100000, guid: 0d6269f46360c2e4db7d511f2bd744d2, type: 2}
