%YAML 1.1
%TAG !u! tag:unity3d.com,2011:
--- !u!114 &11400000
MonoBehaviour:
  m_ObjectHideFlags: 0
  m_CorrespondingSourceObject: {fileID: 0}
  m_PrefabInstance: {fileID: 0}
  m_PrefabAsset: {fileID: 0}
  m_GameObject: {fileID: 0}
  m_Enabled: 1
  m_EditorHideFlags: 0
  m_Script: {fileID: 11500000, guid: 125b9f6e6906d6e4897a443b3c12729c, type: 3}
  m_Name: AE_115_kr
  m_EditorClassIdentifier: 
  material: {fileID: 2100000, guid: b888af4f77b9d4023847e7cf5add4701, type: 2}
  mSprites:
  - name: AE_115_0001s_0000_115_Output-Folder
    x: 0
    y: 42
    width: 414
    height: 543
    borderLeft: 0
    borderRight: 0
    borderTop: 0
    borderBottom: 0
    paddingLeft: 0
    paddingRight: 0
    paddingTop: 0
    paddingBottom: 0
  - name: AE_115_0001s_0001_115_Rendering-Ing-Menu
    x: 1919
    y: 1454
    width: 51
    height: 594
    borderLeft: 0
    borderRight: 0
    borderTop: 0
    borderBottom: 0
    paddingLeft: 0
    paddingRight: 0
    paddingTop: 0
    paddingBottom: 0
  - name: AE_115_0001s_0002_115_Render-Done-Menu
    x: 1971
    y: 1458
    width: 50
    height: 590
    borderLeft: 0
    borderRight: 0
    borderTop: 0
    borderBottom: 0
    paddingLeft: 0
    paddingRight: 0
    paddingTop: 0
    paddingBottom: 0
  - name: AE_115_0001s_0003_115_Render-Stop-Butten
    x: 647
    y: 1432
    width: 94
    height: 21
    borderLeft: 0
    borderRight: 0
    borderTop: 0
    borderBottom: 0
    paddingLeft: 0
    paddingRight: 0
    paddingTop: 0
    paddingBottom: 0
  - name: AE_115_0001s_0004_115_Pause
    x: 0
    y: 1
    width: 92
    height: 19
    borderLeft: 0
    borderRight: 0
    borderTop: 0
    borderBottom: 0
    paddingLeft: 0
    paddingRight: 0
    paddingTop: 0
    paddingBottom: 0
  - name: AE_115_0001s_0005_115_Render-Blue-Line
    x: 186
    y: 8
    width: 40
    height: 8
    borderLeft: 20
    borderRight: 20
    borderTop: 4
    borderBottom: 4
    paddingLeft: 0
    paddingRight: 0
    paddingTop: 0
    paddingBottom: 0
  - name: AE_115_0001s_0006_115_Render
    x: 357
    y: 20
    width: 95
    height: 21
    borderLeft: 0
    borderRight: 0
    borderTop: 0
    borderBottom: 0
    paddingLeft: 0
    paddingRight: 0
    paddingTop: 0
    paddingBottom: 0
  - name: AE_115_0001s_0007_115_Save(select)
    x: 183
    y: 17
    width: 85
    height: 24
    borderLeft: 0
    borderRight: 0
    borderTop: 0
    borderBottom: 0
    paddingLeft: 0
    paddingRight: 0
    paddingTop: 0
    paddingBottom: 0
  - name: AE_115_0001s_0008_115_Save-Folder
    x: 0
    y: 586
    width: 411
    height: 550
    borderLeft: 0
    borderRight: 0
    borderTop: 0
    borderBottom: 0
    paddingLeft: 0
    paddingRight: 0
    paddingTop: 0
    paddingBottom: 0
  - name: AE_115_0001s_0009_115_Intro
    x: 142
    y: 8
    width: 43
    height: 8
    borderLeft: 0
    borderRight: 0
    borderTop: 0
    borderBottom: 0
    paddingLeft: 0
    paddingRight: 0
    paddingTop: 0
    paddingBottom: 0
  - name: AE_115_0001s_0010_115_Custom-AVI
    x: 269
    y: 3
    width: 94
    height: 14
    borderLeft: 0
    borderRight: 0
    borderTop: 0
    borderBottom: 0
    paddingLeft: 0
    paddingRight: 0
    paddingTop: 0
    paddingBottom: 0
  - name: AE_115_0001s_0011_115_Render-1
    x: 647
    y: 1668
    width: 92
    height: 19
    borderLeft: 0
    borderRight: 0
    borderTop: 0
    borderBottom: 0
    paddingLeft: 0
    paddingRight: 0
    paddingTop: 0
    paddingBottom: 0
  - name: AE_115_0001s_0012_115_Queue-in-AEM
    x: 647
    y: 1648
    width: 92
    height: 19
    borderLeft: 0
    borderRight: 0
    borderTop: 0
    borderBottom: 0
    paddingLeft: 0
    paddingRight: 0
    paddingTop: 0
    paddingBottom: 0
  - name: AE_115_0001s_0013_115_Lossless-(select)
    x: 93
    y: 6
    width: 48
    height: 14
    borderLeft: 0
    borderRight: 0
    borderTop: 0
    borderBottom: 0
    paddingLeft: 0
    paddingRight: 0
    paddingTop: 0
    paddingBottom: 0
  - name: AE_115_0001s_0014_115_Render-Panner-Basic
    x: 0
    y: 1688
    width: 1918
    height: 360
    borderLeft: 0
    borderRight: 0
    borderTop: 0
    borderBottom: 0
    paddingLeft: 0
    paddingRight: 0
    paddingTop: 0
    paddingBottom: 0
  - name: AE_115_0001s_0015_115_OK(select)
    x: 269
    y: 18
    width: 87
    height: 23
    borderLeft: 0
    borderRight: 0
    borderTop: 0
    borderBottom: 0
    paddingLeft: 0
    paddingRight: 0
    paddingTop: 0
    paddingBottom: 0
  - name: AE_115_0001s_0016_115_AVI-(select)
    x: 0
    y: 21
    width: 182
    height: 20
    borderLeft: 0
    borderRight: 0
    borderTop: 0
    borderBottom: 0
    paddingLeft: 0
    paddingRight: 0
    paddingTop: 0
    paddingBottom: 0
  - name: AE_115_0001s_0017_115_Format-Option
    x: 412
    y: 954
    width: 324
    height: 182
    borderLeft: 0
    borderRight: 0
    borderTop: 0
    borderBottom: 0
    paddingLeft: 0
    paddingRight: 0
    paddingTop: 0
    paddingBottom: 0
  - name: AE_115_0001s_0018_115_Output-Module-Settings
    x: 0
    y: 1137
    width: 646
    height: 550
    borderLeft: 0
    borderRight: 0
    borderTop: 0
    borderBottom: 0
    paddingLeft: 0
    paddingRight: 0
    paddingTop: 0
    paddingBottom: 0
  mPixelSize: 1
  mReplacement: {fileID: 0}
