﻿id,script
LM_AE_111,English Title 
LM_AE_112,English Title English Title 
LM_AE_113,English Title 
LM_AE_114,English Title English Title 
LM_AE_115,English Title 
LM_AE_211,English Title English Title 
LM_AE_212,English Title 
LM_AE_213,English Title English Title 
LM_AE_214,English Title 
LM_AE_221,English Title English Title 
LM_AE_222,English Title 
LM_AE_223,English Title English Title 
LM_AE_224,English Title 
LM_AE_225,English Title English Title 
LM_AE_226,English Title 
LM_DR_111,다빈치 리졸브 시작!
LM_DR_112,영상 불러오고 세팅하자
LM_DR_113,자막 만들고 꾸미기
LM_DR_114,사운드를 추가하면 영상이 얼마나 멋있게요?
LM_DR_115,편집을 다 했다면 꼭 영상으로 출력해요